Case Study: GFF processing
…
Now that we know exactly where the problem is, we can start working through the data that triggered the problem:

get_value(m, get_parents(m, 5)[[1]])

## Warning in v@get(warn): Attempting to access data that has been deleted,
## returning 'NULL'

## [[1]]
## NULL
## 
## [[2]]
## # A tibble: 53 x 9
##    seqid  source type            start  stop     score strand phase attr  
##    <chr>  <chr>  <chr>           <int> <int>     <dbl> <chr>  <int> <chr> 
##  1 ctg123 <NA>   gene              100   900 NA        +         NA ID=ge…
##  2 ctg123 <NA>   TF_binding_site   110   121 NA        +         NA ID=tf…
##  3 ctg123 <NA>   mRNA              205   900 NA        +         NA ID=mR…
##  4 ctg123 <NA>   five_prime_UTR    205   220 NA        +         NA Paren…
##  5 ctg123 <NA>   CDS               221   350 NA        +          0 ID=cd…
##  6 ctg123 <NA>   CDS               400   444 NA        +          0 ID=cd…
##  7 ctg123 <NA>   CDS               500   550 NA        +          0 ID=cd…
##  8 ctg123 <NA>   CDS               700   760 NA        +          0 ID=cd…
##  9 ctg123 <NA>   three_prime_UTR   761   900 NA        +         NA Paren…
## 10 ctg123 <NA>   cDNA_match        105   150  5.80e-42 +         NA ID=ma…
## # ... with 43 more rows
## 
## [[3]]
## # A tibble: 53 x 9
##    seqid  source type            start  stop     score strand phase attr  
##    <chr>  <chr>  <chr>           <int> <int>     <dbl> <chr>  <int> <chr> 
##  1 ctg123 <NA>   gene              100   900 NA        +         NA ID=ge…
##  2 ctg123 <NA>   TF_binding_site   110   121 NA        +         NA ID=tf…
##  3 ctg123 <NA>   mRNA              205   900 NA        +         NA ID=mR…
##  4 ctg123 <NA>   five_prime_UTR    205   220 NA        +         NA Paren…
##  5 ctg123 <NA>   CDS               221   350 NA        +          0 ID=cd…
##  6 ctg123 <NA>   CDS               400   444 NA        +          0 ID=cd…
##  7 ctg123 <NA>   CDS               500   550 NA        +          0 ID=cd…
##  8 ctg123 <NA>   CDS               700   760 NA        +          0 ID=cd…
##  9 ctg123 <NA>   three_prime_UTR   761   900 NA        +         NA Paren…
## 10 ctg123 <NA>   cDNA_match        105   150  5.80e-42 +         NA ID=ma…
## # ... with 43 more rows

get_value(m, 5)[[1]]

## [[1]]
## NULL
## 
## $raw_gff
## # A tibble: 53 x 9
##    seqid  source type            start  stop     score strand phase attr  
##    <chr>  <chr>  <chr>           <int> <int>     <dbl> <chr>  <int> <chr> 
##  1 ctg123 <NA>   gene              100   900 NA        +         NA ID=ge…
##  2 ctg123 <NA>   TF_binding_site   110   121 NA        +         NA ID=tf…
##  3 ctg123 <NA>   mRNA              205   900 NA        +         NA ID=mR…
##  4 ctg123 <NA>   five_prime_UTR    205   220 NA        +         NA Paren…
##  5 ctg123 <NA>   CDS               221   350 NA        +          0 ID=cd…
##  6 ctg123 <NA>   CDS               400   444 NA        +          0 ID=cd…
##  7 ctg123 <NA>   CDS               500   550 NA        +          0 ID=cd…
##  8 ctg123 <NA>   CDS               700   760 NA        +          0 ID=cd…
##  9 ctg123 <NA>   three_prime_UTR   761   900 NA        +         NA Paren…
## 10 ctg123 <NA>   cDNA_match        105   150  5.80e-42 +         NA ID=ma…
## # ... with 43 more rows
## 
## $tags
## [1] "ID"     "Parent"
…
